// Jest Snapshot v1, https://goo.gl/fbAQLP

exports[`Message should render correctly 1`] = `
<DocumentFragment>
  <div
    class="chat__row"
  >
    <div
      class="message message--in"
    >
      <p
        class="message__text"
      >
        Alice was beginning
      </p>
      <div
        class="message__info"
      >
        <p
          class="message__time"
        >
          12:50
        </p>
      </div>
    </div>
  </div>
</DocumentFragment>
`;
